{
  "name": "Employee",
  "base": "User",
  "idInjection": true,
  "options": {
    "validateUpsert": true
  },
  "properties": {
    "name": {
      "type": "string",
      "required": true
    },
    "mobile": {
      "type": "string",
      "required": true
    },
    "dateOfBirth": {
      "type": "date"
    }
  },
  "validations": [],
  "emailVerificationRequired": true,
  "relations": {
    "accessTokens": {
      "type": "hasMany",
      "model": "AccessToken",
      "polymorphic": {
        "foreignKey": "userId",
        "discriminator": "principalType"
      },
      "options": {
        "disableInclude": true
      }
    },
    "organization": {
      "type": "belongsTo",
      "model": "Organization",
      "foreignKey": ""
    },
    "group": {
      "type": "belongsTo",
      "model": "Group",
      "foreignKey": ""
    },
    "roles": {
      "type": "hasMany",
      "model": "Role",
      "foreignKey": "principalId",
      "keyThrough": "roleId",
      "through": "RoleMapping"
    },
    "attendances": {
      "type": "hasMany",
      "model": "Attendance",
      "foreignKey": ""
    },
    "leaves": {
      "type": "hasMany",
      "model": "Leave",
      "foreignKey": ""
    }
  },
  "acls": [
    {
      "principalType": "ROLE",
      "principalId": "$everyone",
      "permission": "ALLOW",
      "property": "mobileLogin"
    },
    {
      "principalType": "ROLE",
      "principalId": "$everyone",
      "permission": "ALLOW",
      "property": "markIn"
    },
    {
      "accessType": "EXECUTE",
      "principalType": "ROLE",
      "principalId": "appAdmin",
      "permission": "ALLOW",
      "property": "createOrgManager"
    },
    {
      "accessType": "*",
      "principalType": "ROLE",
      "principalId": "$everyone",
      "permission": "DENY"
    },
    {
      "accessType": "READ",
      "principalType": "ROLE",
      "principalId": "$owner",
      "permission": "ALLOW",
      "property": "__get__leaves"
    },
    {
      "accessType": "*",
      "principalType": "ROLE",
      "principalId": "appAdmin",
      "permission": "ALLOW"
    }
  ],
  "methods": {}
}
