{
  "name": "Leave",
  "base": "PersistedModel",
  "idInjection": true,
  "options": {
    "validateUpsert": true
  },
  "properties": {
    "date": {
      "type": "date",
      "required": true,
      "defaultFn": "now"
    },
    "isApproved": {
      "type": "boolean",
      "required": true,
      "default": false
    },
    "type": {
      "type": "LeaveType",
      "required": true
    }
  },
  "validations": [],
  "relations": {
    "employee": {
      "type": "belongsTo",
      "model": "Employee",
      "foreignKey": ""
    }
  },
  "acls": [],
  "methods": {}
}
